{
	"info": {
		"_postman_id": "16ee5538-0ce3-4a23-9f7b-1b56c1f20589",
		"name": "Project Planning System",
		"schema": "https://schema.getpostman.com/json/collection/v2.1.0/collection.json"
	},
	"item": [
		{
			"name": "/projects",
			"item": [
				{
					"name": "/projects/create - Create New Project",
					"request": {
						"auth": {
							"type": "bearer",
							"bearer": [
								{
									"key": "token",
									"value": "{{accessToken_mgs}}",
									"type": "string"
								}
							]
						},
						"method": "POST",
						"header": [],
						"body": {
							"mode": "urlencoded",
							"urlencoded": [
								{
									"key": "name",
									"value": "Create Backend for PPS",
									"type": "text"
								},
								{
									"key": "description",
									"value": "Design and create a Backend solution for the Project Planning System assigned by Tick42",
									"type": "text"
								},
								{
									"key": "targetInDays",
									"value": "30",
									"type": "text"
								},
								{
									"key": "managerWorkInputPerDay",
									"value": "6",
									"type": "text"
								}
							]
						},
						"url": {
							"raw": "localhost:3000/projects/create",
							"host": [
								"localhost"
							],
							"port": "3000",
							"path": [
								"projects",
								"create"
							]
						}
					},
					"response": []
				},
				{
					"name": "/projects - All Projects",
					"request": {
						"auth": {
							"type": "bearer",
							"bearer": [
								{
									"key": "token",
									"value": "{{accessToken_admin}}",
									"type": "string"
								}
							]
						},
						"method": "GET",
						"header": [],
						"url": {
							"raw": "localhost:3000/projects",
							"host": [
								"localhost"
							],
							"port": "3000",
							"path": [
								"projects"
							]
						}
					},
					"response": []
				},
				{
					"name": "/users/:id/projects - User Projects",
					"request": {
						"auth": {
							"type": "bearer",
							"bearer": [
								{
									"key": "token",
									"value": "{{accessToken_admin}}",
									"type": "string"
								}
							]
						},
						"method": "GET",
						"header": [],
						"url": {
							"raw": "localhost:3000/users/c87b0684-8b61-4f61-aa84-5df41de45b22/projects",
							"host": [
								"localhost"
							],
							"port": "3000",
							"path": [
								"users",
								"c87b0684-8b61-4f61-aa84-5df41de45b22",
								"projects"
							]
						}
					},
					"response": []
				},
				{
					"name": "/projects/:id - Single Project",
					"request": {
						"auth": {
							"type": "bearer",
							"bearer": [
								{
									"key": "token",
									"value": "{{accessToken_mgs}}",
									"type": "string"
								}
							]
						},
						"method": "GET",
						"header": [],
						"url": {
							"raw": "localhost:3000/projects/e17e74c3-ba6e-4ef5-941c-caf9d0b573e1",
							"host": [
								"localhost"
							],
							"port": "3000",
							"path": [
								"projects",
								"e17e74c3-ba6e-4ef5-941c-caf9d0b573e1"
							]
						}
					},
					"response": []
				},
				{
					"name": "/projects/:id - Update Project",
					"request": {
						"auth": {
							"type": "bearer",
							"bearer": [
								{
									"key": "token",
									"value": "{{accessToken_mgs}}",
									"type": "string"
								}
							]
						},
						"method": "PATCH",
						"header": [],
						"body": {
							"mode": "urlencoded",
							"urlencoded": [
								{
									"key": "name",
									"value": "",
									"type": "text",
									"disabled": true
								},
								{
									"key": "description",
									"value": "",
									"type": "text",
									"disabled": true
								},
								{
									"key": "targetInDays",
									"value": "",
									"type": "text",
									"disabled": true
								},
								{
									"key": "managerWorkInputPerDay",
									"value": "5",
									"type": "text"
								}
							]
						},
						"url": {
							"raw": "localhost:3000/projects/07f07cc1-4a0a-4840-ac83-e2ba546b7044",
							"host": [
								"localhost"
							],
							"port": "3000",
							"path": [
								"projects",
								"07f07cc1-4a0a-4840-ac83-e2ba546b7044"
							]
						}
					},
					"response": []
				},
				{
					"name": "/projects/:id/status - Update Project Status",
					"request": {
						"auth": {
							"type": "bearer",
							"bearer": [
								{
									"key": "token",
									"value": "{{accessToken_admin}}",
									"type": "string"
								}
							]
						},
						"method": "PATCH",
						"header": [],
						"body": {
							"mode": "urlencoded",
							"urlencoded": [
								{
									"key": "status",
									"value": "COMPLETED",
									"type": "text"
								}
							]
						},
						"url": {
							"raw": "localhost:3000/projects/e17e74c3-ba6e-4ef5-941c-caf9d0b573e1/status",
							"host": [
								"localhost"
							],
							"port": "3000",
							"path": [
								"projects",
								"e17e74c3-ba6e-4ef5-941c-caf9d0b573e1",
								"status"
							]
						}
					},
					"response": []
				},
				{
					"name": "/projects/:id/users/:userId - Reassign Project to Another User",
					"request": {
						"auth": {
							"type": "bearer",
							"bearer": [
								{
									"key": "token",
									"value": "{{accessToken_mgs}}",
									"type": "string"
								}
							]
						},
						"method": "PATCH",
						"header": [],
						"body": {
							"mode": "urlencoded",
							"urlencoded": [
								{
									"key": "managerWorkInputPerDay",
									"value": "5",
									"type": "text"
								}
							]
						},
						"url": {
							"raw": "localhost:3000/projects/07f07cc1-4a0a-4840-ac83-e2ba546b7044/users/cb0ace64-8453-4236-9608-12f0e7e29440",
							"host": [
								"localhost"
							],
							"port": "3000",
							"path": [
								"projects",
								"07f07cc1-4a0a-4840-ac83-e2ba546b7044",
								"users",
								"cb0ace64-8453-4236-9608-12f0e7e29440"
							]
						}
					},
					"response": []
				},
				{
					"name": "/projects/:id - Delete Project",
					"request": {
						"auth": {
							"type": "bearer",
							"bearer": [
								{
									"key": "token",
									"value": "{{accessToken_admin}}",
									"type": "string"
								}
							]
						},
						"method": "DELETE",
						"header": [],
						"url": {
							"raw": "localhost:3000/projects/07f07cc1-4a0a-4840-ac83-e2ba546b7044",
							"host": [
								"localhost"
							],
							"port": "3000",
							"path": [
								"projects",
								"07f07cc1-4a0a-4840-ac83-e2ba546b7044"
							]
						}
					},
					"response": []
				}
			],
			"protocolProfileBehavior": {}
		},
		{
			"name": "/users",
			"item": [
				{
					"name": "/users/register - Register New User",
					"request": {
						"auth": {
							"type": "bearer",
							"bearer": [
								{
									"key": "token",
									"value": "{{accessToken_admin}}",
									"type": "string"
								}
							]
						},
						"method": "POST",
						"header": [],
						"body": {
							"mode": "urlencoded",
							"urlencoded": [
								{
									"key": "firstName",
									"value": "Assistant",
									"type": "text"
								},
								{
									"key": "lastName",
									"value": "Dwight",
									"type": "text"
								},
								{
									"key": "email",
									"value": "dschrute@pps.com",
									"type": "text"
								},
								{
									"key": "password",
									"value": "Test123!",
									"type": "text"
								},
								{
									"key": "totalAvailableWorkTime",
									"value": "8",
									"type": "text"
								},
								{
									"key": "skills",
									"value": "",
									"type": "text"
								},
								{
									"key": "managedById",
									"value": "c87b0684-8b61-4f61-aa84-5df41de45b22",
									"type": "text"
								}
							]
						},
						"url": {
							"raw": "localhost:3000/users/register",
							"host": [
								"localhost"
							],
							"port": "3000",
							"path": [
								"users",
								"register"
							]
						}
					},
					"response": []
				},
				{
					"name": "/users - All Users",
					"request": {
						"auth": {
							"type": "bearer",
							"bearer": [
								{
									"key": "token",
									"value": "{{accessToken_admin}}",
									"type": "string"
								}
							]
						},
						"method": "GET",
						"header": [],
						"url": {
							"raw": "localhost:3000/users",
							"host": [
								"localhost"
							],
							"port": "3000",
							"path": [
								"users"
							]
						}
					},
					"response": []
				},
				{
					"name": "/users/:id - Single User",
					"request": {
						"auth": {
							"type": "bearer",
							"bearer": [
								{
									"key": "token",
									"value": "{{accessToken_user}}",
									"type": "string"
								}
							]
						},
						"method": "GET",
						"header": [
							{
								"key": "Authorization",
								"value": "Bearer eyJhbGciOiJIUzI1NiIsInR5cCI6IkpXVCJ9.eyJlbWFpbCI6ImFkbWluQHBwcy5jb20iLCJwb3NpdGlvbnMiOlsiUkVHVUxBUiIsIkFETUlOIl0sImhhc0FjY2VzcyI6dHJ1ZSwiaWF0IjoxNTg5Mzg3ODQzLCJleHAiOjI1ODkzODc4NDJ9.X-Hxi34zWtcAq1Ea5AdQWV9UGffrNX_aGtCBJ9hKq0M",
								"type": "text",
								"disabled": true
							}
						],
						"url": {
							"raw": "localhost:3000/users/c87b0684-8b61-4f61-aa84-5df41de45b22",
							"host": [
								"localhost"
							],
							"port": "3000",
							"path": [
								"users",
								"c87b0684-8b61-4f61-aa84-5df41de45b22"
							]
						}
					},
					"response": []
				},
				{
					"name": "/users/me - Logged User Info",
					"request": {
						"auth": {
							"type": "bearer",
							"bearer": [
								{
									"key": "token",
									"value": "{{accessToken_mgs}}",
									"type": "string"
								}
							]
						},
						"method": "GET",
						"header": [],
						"url": {
							"raw": "localhost:3000/users/me",
							"host": [
								"localhost"
							],
							"port": "3000",
							"path": [
								"users",
								"me"
							]
						}
					},
					"response": []
				},
				{
					"name": "/user/:id/users - User Subordinates",
					"request": {
						"auth": {
							"type": "bearer",
							"bearer": [
								{
									"key": "token",
									"value": "{{accessToken_mgs}}",
									"type": "string"
								}
							]
						},
						"method": "GET",
						"header": [],
						"url": {
							"raw": "localhost:3000/users/c87b0684-8b61-4f61-aa84-5df41de45b22/users",
							"host": [
								"localhost"
							],
							"port": "3000",
							"path": [
								"users",
								"c87b0684-8b61-4f61-aa84-5df41de45b22",
								"users"
							]
						}
					},
					"response": []
				},
				{
					"name": "/user/:id/employees - Employee Subordinates",
					"request": {
						"auth": {
							"type": "bearer",
							"bearer": [
								{
									"key": "token",
									"value": "{{accessToken_admin}}",
									"type": "string"
								}
							]
						},
						"method": "GET",
						"header": [],
						"url": {
							"raw": "localhost:3000/users/c87b0684-8b61-4f61-aa84-5df41de45b22/employees",
							"host": [
								"localhost"
							],
							"port": "3000",
							"path": [
								"users",
								"c87b0684-8b61-4f61-aa84-5df41de45b22",
								"employees"
							]
						}
					},
					"response": []
				},
				{
					"name": "/users/:id - Update User",
					"request": {
						"auth": {
							"type": "bearer",
							"bearer": [
								{
									"key": "token",
									"value": "{{accessToken_admin}}",
									"type": "string"
								}
							]
						},
						"method": "PATCH",
						"header": [],
						"body": {
							"mode": "urlencoded",
							"urlencoded": [
								{
									"key": "firstName",
									"value": "",
									"type": "text",
									"disabled": true
								},
								{
									"key": "lastName",
									"value": "",
									"type": "text",
									"disabled": true
								},
								{
									"key": "email",
									"value": "mgs@pps.com",
									"type": "text",
									"disabled": true
								},
								{
									"key": "password",
									"value": "",
									"type": "text",
									"disabled": true
								}
							]
						},
						"url": {
							"raw": "localhost:3000/users/c87b0684-8b61-4f61-aa84-5df41de45b22",
							"host": [
								"localhost"
							],
							"port": "3000",
							"path": [
								"users",
								"c87b0684-8b61-4f61-aa84-5df41de45b22"
							]
						}
					},
					"response": []
				},
				{
					"name": "/users/:id/employees/:id - Assign Employee to User",
					"request": {
						"auth": {
							"type": "bearer",
							"bearer": [
								{
									"key": "token",
									"value": "{{accessToken_admin}}",
									"type": "string"
								}
							]
						},
						"method": "PUT",
						"header": [],
						"url": {
							"raw": "localhost:3000/users/c87b0684-8b61-4f61-aa84-5df41de45b22/employees/87fc2359-70a7-4194-9bcd-556da76fba34",
							"host": [
								"localhost"
							],
							"port": "3000",
							"path": [
								"users",
								"c87b0684-8b61-4f61-aa84-5df41de45b22",
								"employees",
								"87fc2359-70a7-4194-9bcd-556da76fba34"
							]
						}
					},
					"response": []
				},
				{
					"name": "/users/:id/users/:managerId - Assign User to Manager",
					"request": {
						"auth": {
							"type": "bearer",
							"bearer": [
								{
									"key": "token",
									"value": "{{accessToken_admin}}",
									"type": "string"
								}
							]
						},
						"method": "PUT",
						"header": [],
						"url": {
							"raw": "localhost:3000/users/edb987a3-0923-4c1c-be95-109a86e02230/users/c87b0684-8b61-4f61-aa84-5df41de45b22",
							"host": [
								"localhost"
							],
							"port": "3000",
							"path": [
								"users",
								"edb987a3-0923-4c1c-be95-109a86e02230",
								"users",
								"c87b0684-8b61-4f61-aa84-5df41de45b22"
							]
						}
					},
					"response": []
				},
				{
					"name": "/users/:id - Delete User",
					"request": {
						"auth": {
							"type": "bearer",
							"bearer": [
								{
									"key": "token",
									"value": "{{accessToken_admin}}",
									"type": "string"
								}
							]
						},
						"method": "DELETE",
						"header": [],
						"url": {
							"raw": "localhost:3000/users/:id",
							"host": [
								"localhost"
							],
							"port": "3000",
							"path": [
								"users",
								":id"
							],
							"variable": [
								{
									"key": "id",
									"value": ""
								}
							]
						}
					},
					"response": []
				}
			],
			"protocolProfileBehavior": {}
		},
		{
			"name": "/employees",
			"item": [
				{
					"name": "/employees/create - Create New Employee",
					"request": {
						"auth": {
							"type": "bearer",
							"bearer": [
								{
									"key": "token",
									"value": "{{accessToken_admin}}",
									"type": "string"
								}
							]
						},
						"method": "POST",
						"header": [],
						"body": {
							"mode": "urlencoded",
							"urlencoded": [
								{
									"key": "firstName",
									"value": "Test",
									"type": "text"
								},
								{
									"key": "lastName",
									"value": "Test",
									"type": "text"
								},
								{
									"key": "email",
									"value": "test@pps.com",
									"type": "text"
								},
								{
									"key": "skills",
									"value": "JAVASCRIPT,PYTHON,PHP",
									"type": "text"
								},
								{
									"key": "totalAvailableWorkTime",
									"value": "6",
									"type": "text"
								},
								{
									"key": "managerId",
									"value": "8ebd4bef-e34e-46fc-bf58-29e0b6dbb6f3",
									"type": "text"
								}
							]
						},
						"url": {
							"raw": "localhost:3000/employees/create",
							"host": [
								"localhost"
							],
							"port": "3000",
							"path": [
								"employees",
								"create"
							]
						}
					},
					"response": []
				},
				{
					"name": "/employees - All Employees",
					"request": {
						"auth": {
							"type": "bearer",
							"bearer": [
								{
									"key": "token",
									"value": "{{accessToken_admin}}",
									"type": "string"
								}
							]
						},
						"method": "GET",
						"header": [],
						"url": {
							"raw": "localhost:3000/employees",
							"host": [
								"localhost"
							],
							"port": "3000",
							"path": [
								"employees"
							]
						}
					},
					"response": []
				},
				{
					"name": "/employees/:id - Single Employee",
					"request": {
						"auth": {
							"type": "bearer",
							"bearer": [
								{
									"key": "token",
									"value": "{{accessToken_admin}}",
									"type": "string"
								}
							]
						},
						"method": "GET",
						"header": [],
						"url": {
							"raw": "localhost:3000/employees/87fc2359-70a7-4194-9bcd-556da76fba34",
							"host": [
								"localhost"
							],
							"port": "3000",
							"path": [
								"employees",
								"87fc2359-70a7-4194-9bcd-556da76fba34"
							]
						}
					},
					"response": []
				},
				{
					"name": "/employees/:id - Update Employee Info",
					"request": {
						"auth": {
							"type": "bearer",
							"bearer": [
								{
									"key": "token",
									"value": "{{accessToken_admin}}",
									"type": "string"
								}
							]
						},
						"method": "PATCH",
						"header": [],
						"body": {
							"mode": "urlencoded",
							"urlencoded": [
								{
									"key": "firstName",
									"value": "Pchelichko",
									"type": "text",
									"disabled": true
								},
								{
									"key": "lastName",
									"value": "Pchelichkov",
									"type": "text",
									"disabled": true
								},
								{
									"key": "email",
									"value": "j.halpert@pps.com",
									"type": "text",
									"disabled": true
								},
								{
									"key": "newSkills",
									"value": "sales,php,javascript",
									"type": "text"
								},
								{
									"key": "managerId",
									"value": "uuid",
									"type": "text",
									"disabled": true
								}
							],
							"options": {
								"urlencoded": {}
							}
						},
						"url": {
							"raw": "localhost:3000/employees/bc2ede0e-367c-4407-b59f-9cec4ee5a4ed",
							"host": [
								"localhost"
							],
							"port": "3000",
							"path": [
								"employees",
								"bc2ede0e-367c-4407-b59f-9cec4ee5a4ed"
							]
						}
					},
					"response": []
				},
				{
					"name": "/employees/:id/skills - Add Employee Skills",
					"request": {
						"auth": {
							"type": "bearer",
							"bearer": [
								{
									"key": "token",
									"value": "{{accessToken_admin}}",
									"type": "string"
								}
							]
						},
						"method": "PATCH",
						"header": [],
						"body": {
							"mode": "urlencoded",
							"urlencoded": [
								{
									"key": "newSkills",
									"value": "SALES,PYTHON,PHP",
									"type": "text"
								}
							],
							"options": {
								"urlencoded": {}
							}
						},
						"url": {
							"raw": "localhost:3000/employees/bc2ede0e-367c-4407-b59f-9cec4ee5a4ed/skills",
							"host": [
								"localhost"
							],
							"port": "3000",
							"path": [
								"employees",
								"bc2ede0e-367c-4407-b59f-9cec4ee5a4ed",
								"skills"
							]
						}
					},
					"response": []
				},
				{
					"name": "/employees/:id/skills - Remove Employee Skills",
					"request": {
						"auth": {
							"type": "bearer",
							"bearer": [
								{
									"key": "token",
									"value": "{{accessToken_admin}}",
									"type": "string"
								}
							]
						},
						"method": "DELETE",
						"header": [],
						"body": {
							"mode": "urlencoded",
							"urlencoded": [
								{
									"key": "skillToRemove",
									"value": "PHP",
									"type": "text"
								}
							],
							"options": {
								"urlencoded": {}
							}
						},
						"url": {
							"raw": "localhost:3000/employees/bc2ede0e-367c-4407-b59f-9cec4ee5a4ed/skills",
							"host": [
								"localhost"
							],
							"port": "3000",
							"path": [
								"employees",
								"bc2ede0e-367c-4407-b59f-9cec4ee5a4ed",
								"skills"
							]
						}
					},
					"response": []
				},
				{
					"name": "/employees/:id - Delete Employee",
					"request": {
						"auth": {
							"type": "bearer",
							"bearer": [
								{
									"key": "token",
									"value": "{{accessToken_admin}}",
									"type": "string"
								}
							]
						},
						"method": "DELETE",
						"header": [],
						"url": {
							"raw": "localhost:3000/employees/:id",
							"host": [
								"localhost"
							],
							"port": "3000",
							"path": [
								"employees",
								":id"
							],
							"variable": [
								{
									"key": "id",
									"value": ""
								}
							]
						}
					},
					"response": []
				}
			],
			"protocolProfileBehavior": {}
		},
		{
			"name": "/session",
			"item": [
				{
					"name": "/session/login - User Login",
					"request": {
						"method": "POST",
						"header": [],
						"body": {
							"mode": "urlencoded",
							"urlencoded": [
								{
									"key": "email",
									"value": "mgs@pps.com",
									"type": "text"
								},
								{
									"key": "password",
									"value": "Test123!",
									"type": "text"
								}
							]
						},
						"url": {
							"raw": "localhost:3000/session/login",
							"host": [
								"localhost"
							],
							"port": "3000",
							"path": [
								"session",
								"login"
							]
						}
					},
					"response": []
				},
				{
					"name": "/session/ - Logout",
					"request": {
						"method": "DELETE",
						"header": [],
						"url": {
							"raw": "localhost:3000/session",
							"host": [
								"localhost"
							],
							"port": "3000",
							"path": [
								"session"
							]
						}
					},
					"response": []
				}
			],
			"protocolProfileBehavior": {}
		},
		{
			"name": "/skills",
			"item": [
				{
					"name": "/skills - All Skills",
					"request": {
						"auth": {
							"type": "bearer",
							"bearer": [
								{
									"key": "token",
									"value": "{{accessToken_user}}",
									"type": "string"
								}
							]
						},
						"method": "GET",
						"header": [],
						"url": {
							"raw": "localhost:3000/skills",
							"host": [
								"localhost"
							],
							"port": "3000",
							"path": [
								"skills"
							]
						}
					},
					"response": []
				},
				{
					"name": "/skills?skillName=query - Search Skills",
					"request": {
						"auth": {
							"type": "bearer",
							"bearer": [
								{
									"key": "token",
									"value": "{{accessToken_user}}",
									"type": "string"
								}
							]
						},
						"method": "GET",
						"header": [],
						"url": {
							"raw": "localhost:3000/skills?skill=JS",
							"host": [
								"localhost"
							],
							"port": "3000",
							"path": [
								"skills"
							],
							"query": [
								{
									"key": "skill",
									"value": "JS"
								}
							]
						}
					},
					"response": []
				},
				{
					"name": "/skills - Create New Skill",
					"request": {
						"auth": {
							"type": "bearer",
							"bearer": [
								{
									"key": "token",
									"value": "{{accessToken_admin}}",
									"type": "string"
								}
							]
						},
						"method": "POST",
						"header": [],
						"body": {
							"mode": "urlencoded",
							"urlencoded": [
								{
									"key": "skillName",
									"value": "management",
									"type": "text"
								}
							]
						},
						"url": {
							"raw": "localhost:3000/skills",
							"host": [
								"localhost"
							],
							"port": "3000",
							"path": [
								"skills"
							]
						}
					},
					"response": []
				}
			],
			"protocolProfileBehavior": {}
		},
		{
			"name": "/requirements",
			"item": [
				{
					"name": "/projects/:id/requirements - Create Project Requirement",
					"request": {
						"auth": {
							"type": "bearer",
							"bearer": [
								{
									"key": "token",
									"value": "{{accessToken_mgs}}",
									"type": "string"
								}
							]
						},
						"method": "POST",
						"header": [],
						"body": {
							"mode": "urlencoded",
							"urlencoded": [
								{
									"key": "reqSkill",
									"value": "JAVASCRIPT",
									"type": "text"
								},
								{
									"key": "totalReqWorkTime",
									"value": "80",
									"type": "text"
								}
							]
						},
						"url": {
							"raw": "localhost:3000/projects/6ed4e078-fd1c-4776-86b7-fecebfd5fff6/requirements",
							"host": [
								"localhost"
							],
							"port": "3000",
							"path": [
								"projects",
								"6ed4e078-fd1c-4776-86b7-fecebfd5fff6",
								"requirements"
							]
						}
					},
					"response": []
				},
				{
					"name": "/projects/:id/requirements -  Requirements for Project",
					"protocolProfileBehavior": {
						"disableBodyPruning": true
					},
					"request": {
						"auth": {
							"type": "bearer",
							"bearer": [
								{
									"key": "token",
									"value": "{{accessToken_mgs}}",
									"type": "string"
								}
							]
						},
						"method": "GET",
						"header": [],
						"body": {
							"mode": "urlencoded",
							"urlencoded": []
						},
						"url": {
							"raw": "localhost:3000/projects/005d557c-c420-4d7b-b1fa-a24e096bfc8f/requirements",
							"host": [
								"localhost"
							],
							"port": "3000",
							"path": [
								"projects",
								"005d557c-c420-4d7b-b1fa-a24e096bfc8f",
								"requirements"
							]
						}
					},
					"response": []
				},
				{
					"name": "/requirements/:id - Update Requirement",
					"request": {
						"auth": {
							"type": "bearer",
							"bearer": [
								{
									"key": "token",
									"value": "{{accessToken_mgs}}",
									"type": "string"
								}
							]
						},
						"method": "PATCH",
						"header": [],
						"body": {
							"mode": "urlencoded",
							"urlencoded": [
								{
									"key": "reqSkill",
									"value": "PHP",
									"type": "text",
									"disabled": true
								},
								{
									"key": "totalReqWorkTime",
									"value": "40",
									"type": "text"
								}
							]
						},
						"url": {
							"raw": "localhost:3000/requirements/6de35c00-5ecf-4d1a-92d9-3db4d0c91fc4",
							"host": [
								"localhost"
							],
							"port": "3000",
							"path": [
								"requirements",
								"6de35c00-5ecf-4d1a-92d9-3db4d0c91fc4"
							]
						}
					},
					"response": []
				},
				{
					"name": "/requirements/:id - Delete Requirement",
					"request": {
						"auth": {
							"type": "bearer",
							"bearer": [
								{
									"key": "token",
									"value": "{{accessToken_admin}}",
									"type": "string"
								}
							]
						},
						"method": "DELETE",
						"header": [],
						"url": {
							"raw": "localhost:3000/requirements/b95ed5b2-f3b6-4563-9df2-350165b3645f",
							"host": [
								"localhost"
							],
							"port": "3000",
							"path": [
								"requirements",
								"b95ed5b2-f3b6-4563-9df2-350165b3645f"
							]
						}
					},
					"response": []
				}
			],
			"protocolProfileBehavior": {}
		},
		{
			"name": "/assignments",
			"item": [
				{
					"name": "/employees/:id/assignments - Assign Work to Employee",
					"request": {
						"auth": {
							"type": "bearer",
							"bearer": [
								{
									"key": "token",
									"value": "{{accessToken_mgs}}",
									"type": "string"
								}
							]
						},
						"method": "POST",
						"header": [],
						"body": {
							"mode": "urlencoded",
							"urlencoded": [
								{
									"key": "employeeWorkInputPerDay",
									"value": "1",
									"type": "text"
								},
								{
									"key": "reqId",
									"value": "3637b280-eb9d-408f-a2d8-ff91dae744d6",
									"type": "text"
								}
							]
						},
						"url": {
							"raw": "localhost:3000/employees/8ebd4bef-e34e-46fc-bf58-29e0b6dbb6f3/assignments",
							"host": [
								"localhost"
							],
							"port": "3000",
							"path": [
								"employees",
								"8ebd4bef-e34e-46fc-bf58-29e0b6dbb6f3",
								"assignments"
							]
						}
					},
					"response": []
				},
				{
					"name": "/employees/:id/assignments - All  Employee Assignments",
					"request": {
						"auth": {
							"type": "bearer",
							"bearer": [
								{
									"key": "token",
									"value": "{{accessToken_mgs}}",
									"type": "string"
								}
							]
						},
						"method": "GET",
						"header": [],
						"url": {
							"raw": "localhost:3000/employees/8ebd4bef-e34e-46fc-bf58-29e0b6dbb6f3/assignments",
							"host": [
								"localhost"
							],
							"port": "3000",
							"path": [
								"employees",
								"8ebd4bef-e34e-46fc-bf58-29e0b6dbb6f3",
								"assignments"
							]
						}
					},
					"response": []
				},
				{
					"name": "/requirements/:id/assignments - All Requirement Assignments",
					"request": {
						"auth": {
							"type": "bearer",
							"bearer": [
								{
									"key": "token",
									"value": "{{accessToken_admin}}",
									"type": "string"
								}
							]
						},
						"method": "GET",
						"header": [],
						"url": {
							"raw": "localhost:3000/requirements/4dd4a03c-7626-4a02-ba3a-881c469d1d21/assignments",
							"host": [
								"localhost"
							],
							"port": "3000",
							"path": [
								"requirements",
								"4dd4a03c-7626-4a02-ba3a-881c469d1d21",
								"assignments"
							]
						}
					},
					"response": []
				},
				{
					"name": "/employees/:id/assignments/:id - Update Assignment",
					"request": {
						"auth": {
							"type": "bearer",
							"bearer": [
								{
									"key": "token",
									"value": "{{accessToken_admin}}",
									"type": "string"
								}
							]
						},
						"method": "PATCH",
						"header": [],
						"body": {
							"mode": "urlencoded",
							"urlencoded": [
								{
									"key": "employeeWorkInputPerDay",
									"value": "3",
									"type": "text"
								},
								{
									"key": "",
									"value": "",
									"type": "text",
									"disabled": true
								}
							]
						},
						"url": {
							"raw": "localhost:3000/employees/8ebd4bef-e34e-46fc-bf58-29e0b6dbb6f3/assignments/08b58df0-3c31-40fd-bf8e-f1274704f8e3",
							"host": [
								"localhost"
							],
							"port": "3000",
							"path": [
								"employees",
								"8ebd4bef-e34e-46fc-bf58-29e0b6dbb6f3",
								"assignments",
								"08b58df0-3c31-40fd-bf8e-f1274704f8e3"
							]
						}
					},
					"response": []
				},
				{
					"name": "/assignments/:id - Delete Assignment",
					"request": {
						"auth": {
							"type": "bearer",
							"bearer": [
								{
									"key": "token",
									"value": "{{accessToken_admin}}",
									"type": "string"
								}
							]
						},
						"method": "DELETE",
						"header": [],
						"url": {
							"raw": "localhost:3000/assignments/0d306893-02ef-4abd-80b3-dc277c93d2d3",
							"host": [
								"localhost"
							],
							"port": "3000",
							"path": [
								"assignments",
								"0d306893-02ef-4abd-80b3-dc277c93d2d3"
							]
						}
					},
					"response": []
				}
			],
			"protocolProfileBehavior": {}
		}
	],
	"protocolProfileBehavior": {}
}